{
"tags":[
    "PE",
    "Kunststoff",
    "kunststoff",
    "bucket",
    "Tüte(n)",
    "sachet zip",
    "Becher",
    "Plastic",
    "Tüte",
    "Plastik",
    "Plastikbeutel",
    "Polyethylenfolie",
    "Plastique",
    "PETE",
    "pot plastique",
    "tüte",
    "beutel",
    "Zellofan",
    "07-O",
    " plastique",
    "7 opp/pe",
    "Kaffekapseln",
    "Plastikflasche",
    "cardboard and plastic",
    "Plastiktüte",
    "♷",
    "05 PP",
    "wiederverschließbare Pladtiktüte",
    " Becher",
    "07 O",
    "07",
    "PET-Flasche (einweg)",
    "Einweg Pfandflasche",
    "05",
    "Plastic bag",
    "Folie",
    "Plastic film",
    "Plastikfolie",
    "84 C/PAP",
    "Pfandfrei",
    "Einwegpfand",
    "06 PS",
    "05-PP",
    "PP",
    "04",
    "PE-LD",
    "04 PE-LD",
    "plastik",
    "fr:plastique",
    "Sachetplastique",
    "84",
    "plastique",
    "♹",
    "Netz",
    " Kunststoff",
    "fr:Plastique",
    "Sachet plastique",
    "01 PET",
    "♳",
    "C/Alu",
    "plastic",
    "fr:bouteilleplastique",
    "fr:Bouchon plastique et son bouchon à recycler",
    "nl:PET",
    "05-pp",
    "Papiertüte",
    "Kartonboden mit Kunststoffverpackung",
    "1-PET",
    "de:Plastique",
    "Styropor",
    "01",
    "Kunststoffbox",
    "Plastikbox",
    "81 C/PAP",
    "95",
    "Plastique 11 g",
    "1 PET",
    "tüte(n)",
    "plastic lid",
    "5 PP",
    "fr:Sachet plastique",
    "fr:Atmosphère protectrice",
    "06",
    "07 PE",
    "fr:05",
    "fr:PP",
    "fr:OPP",
    "5 pp",
    "PAP/PP",
    "packung(en)",
    "plastic tray",
    "plastic bag",
    "fr:sachet plastique",
    "fr:FSC mixte",
    "nl:FSC C017110",
    "Sachet en plastique",
    " Blister",
    "Kunststoff Box",
    "Plástico",
    "Kunststofffolie",
    "PET",
    " kunststoff",
    "nl:FSC Mixte carton",
    "♶",
    "Plastikverpackung",
    "VerpackV-7",
    " Plastik",
    "Kunststoffbecher",
    "Atmosphere protectrice",
    "Film plastique",
    "C/PAP 81",
    "c/pap 81",
    "PP 05",
    "Karton und Plastik",
    "85",
    "netz",
    "nl:PP 05",
    "nl:Foodsafe",
    "fr:Pot plastique",
    "5",
    "Eimer",
    "en:Foodsafe",
    "Pot plastique",
    "en:Food Safe",
    "envase de plástico",
    "Sous atmosphère protectrice",
    "Dose/Dosen",
    "Kunstsstoff",
    "Envoltorio de plástico",
    "PS",
    "7",
    "Plastikflasche 500ml",
    "PET-01",
    "plastic net",
    " LDPE",
    " 04",
    "plastico",
    "Envasado en atmósfera protectora",
    "Plastebecher",
    "PP05",
    "Tarrina de plástico",
    "Bolsa de plástico",
    "Tarrinadeplástico",
    " net",
    "7 PP/PE",
    "♸",
    " Netz",
    "fr:Couvercle plastique",
    "plastic (07-OTHER) punnet",
    "plastic film",
    "fr:05 PP",
    "Polyethylenterephthalat",
    "82-C/PAP",
    "81-C/PAP",
    "en:PP 05",
    "en:Film",
    " 07 o",
    "OPP",
    "sous atmosphère protectrice",
    "Tüten",
    "PP 07",
    "de:Kunststofffolie",
    "fr:film plastique",
    "fr:FSC Mixte",
    "Plastik Beutel",
    "Film papier",
    "5-PP",
    "7-81",
    "Tubo de plástico",
    " sachet plastique",
    "Kunststoffschale",
    "nl:07",
    "Plasticbecher",
    "Protective atmosphere",
    "PET Flasche",
    "Schutzatmosphäre",
    "Kochbeutel",
    "C/Pap",
    "04 LDPE",
    "07-o",
    " Plástico",
    "C/PAP",
    "Karton Plastik",
    "07O",
    "01-PET",
    "Metalldeckel",
    "eingeschweißt",
    "04 PP",
    "1 pet",
    "Vakuumverpackt",
    "Kunststoffdose",
    "♴",
    "HDPE",
    "2-HDPE",
    "wiederverschließbare Plastiktüte",
    " Paket",
    " Beutel",
    "becher",
    "Karton Alu",
    "PP/PP",
    "Becher Kunststoff",
    "82 C",
    "pet Flasche",
    "Other",
    "6 PS",
    "07 PP/PE",
    "Plastikbecher",
    "Plastiktüte in Pappkarton",
    "07 PET/ALU/PE",
    "Kunsstoffbox",
    "Kunssstoff",
    "FSC Recycled C081842",
    "kleiner eimer",
    "Kunststoffnetz",
    "06-PS",
    "Kapseln",
    "in Folie",
    "Kunststoffbeutel",
    "Eingeschweißt",
    "Squeeze-Flasche",
    "Sichtfenster",
    "Folienbeutel",
    "Plastik Flasche",
    "Polypropylen",
    "folie",
    "Plastic wrap",
    "Kunststofftüte",
    "Plastikdose",
    "plastedose",
    "bedruckte Metallfolie",
    "Papier Plastik",
    "Aluminiumfolie",
    "Eingeschweisst",
    "Plastick",
    "plastifolien wrap",
    "Verbundverpackung",
    "Kunststoff-Schraubdeckelbehälter",
    "Kunststoffblister",
    "Paper",
    "02",
    "Kunstoff",
    "Kunststoffröhrchen",
    " Celluphan",
    "Beutel/Tüte",
    " Folie",
    "Alufolie",
    "Karton / Plastik",
    "Kunststoff / Papier",
    "85 C/PAP",
    "Kunststoffdeckel",
    "07 o",
    "Klarsichtbeutel",
    "1 R-PET",
    "PP5",
    "Pot en plastique",
    "81C/PP",
    "Alle Season",
    "05 pp",
    "gefriebeutel",
    "Cellulosehydrat",
    "plastiktüte",
    "Plastic Bottle",
    "Pet Flasche",
    "Recyclebare Einwegpfandflasche",
    "EInwegpfand",
    "barquette en plastique",
    "Einzelverpackung",
    "Einzelportion in Folie",
    "boîte et sachet plastique",
    "Sachet plastique à jeter",
    "Boîte carton à recycler",
    "Folie Papier",
    "Film plastique à jeter",
    "bouteille plastique",
    "bouchon plastique",
    "Film",
    "sachet-plastique",
    "plástico",
    "Film polypropylen",
    "Aluminium Papier",
    "Plastikflasche recycelbar",
    "Polyethylen",
    "Plastic Bag",
    "Flasche Kunststoff",
    "de:05 PP",
    "de:Kunststoff",
    "de:♷",
    "Pappkarton und Pladtiktüte",
    "Spender",
    "Verbundstoff",
    "Kleinverpackung",
    "Pappdose",
    "Kunstoffdeckel",
    "Plaste",
    "7-O",
    "4 PE-LD",
    "Beutel mit Aromaverschluss",
    "PET-Flasche",
    "7 OPP/PE",
    "Mehrweg Gasflasche",
    "Sac plastique",
    "Mehrweg-Pfandflasche",
    "Kunststoffflasche",
    "Joghurtbecher",
    "02 PEHD",
    "Zweikomponentenbecher",
    "40-FE",
    "pp",
    "PET-Flasche 1ltr",
    "plastikbeutel",
    " Plastetüte",
    "en:Plastic",
    "Flasche PET",
    "PET Mehrwegflasche",
    "pet flasche",
    "Flasche (Plastik)",
    "Plastkkbeutel",
    "Kunsttoff",
    "Künststoff",
    "Mehrwegplastikflasche",
    "Kunststoff Pfandflasche",
    "Einweg",
    "Kunstoffbeutel",
    "90-C/LDPE",
    "C/LDPE",
    "schutzatmosphäre",
    "Plastik in Karton",
    "21 PP",
    "Aluminium Pappkarton",
    "Frischhaltefolie",
    "Cellophan",
    "FSC",
    "vacuumverpackt",
    "Polyethlyen",
    "Polyethylen-Aluminium-Verbundstoff",
    "Plastik Tüte",
    "Folienverpackung",
    "5PP",
    "21PAP",
    "82C/PAP",
    "82 C/PAP",
    "06 PP",
    " becher",
    "pot en plastique",
    "2 HDPE",
    "Kunsstoffbeutel",
    "Verpackung",
    "Tube (Kunststoff)",
    "Kunststoff Tüte",
    "2 HD-PE",
    "PET CYCLE",
    "metallbeschichtete Kunststofftüte",
    "CPAP",
    "Plastiktüte in Karton",
    " Mehrweg-Pfandflasche",
    "Kuststofftüte",
    "81 C/PP",
    "90-c-alu",
    "06-ps",
    "90 C/ALU",
    "Kunststoffeimer",
    "plastic bottle",
    "Flache",
    "einweg PET Flasche",
    "Metalldose mit Plastikdeckel",
    "Leichtverpackung",
    "Frischhaltebeutel",
    "pet",
    "Metall mit Kunstoff",
    "07 PP",
    "84-C/PAP",
    " Einwegpfand",
    "3-PVC",
    "FSC Mix",
    "1-PETE",
    "Novoplast Liberec",
    "Pappbecher kompostierbar",
    "Kunststoffe",
    " FP",
    "carton + plastique",
    "Kunstsstoffdöschen",
    "Kunststoffbehälter",
    "fr:Film plastique",
    "Papier mit Plastik",
    "Kunststoff Aluminium",
    "Kunststoffschale mit Deckel",
    "nl:FSC Mix",
    "nl:FSC C014047",
    "Einwegflasche",
    "Plastikschale",
    "Kunststoffschale in Folie",
    "plastique compostable",
    "Plastik-Schale",
    "90 C/LDPE",
    "plastikflasche",
    "PET Einwegflasche",
    "Kunststoff Dose mit Deckel",
    "02 HD-PE",
    "05/PP",
    "41/ALU",
    "Platikbecher",
    "Plastikschale mit Deckel",
    "PET Mehrweg",
    "Mehrwegkunststoffflasche",
    "Beutel (Folie)",
    "Kunststoffschachtel",
    "Pladtik",
    "Papier / Plastik",
    "Plastik Eimer",
    "Plastik-Tasche Kunstoffbeutel",
    "Pladtikflasche",
    "Karton Plastiktüte",
    "aluminisierte PE-Folie (Laminat)",
    "Folientüte",
    "Pappkarton Plastik",
    "01 pet",
    "pet-Flasche",
    "07 O PA-LDPE",
    "07 P PA-LDPE",
    "C/PAP81",
    "Plasikflasche",
    "82-C",
    "PAP-22",
    " angebrochene packung",
    "90 C/PP",
    "27 PP",
    "Mehrweg pet",
    "Pet",
    " 5 Ltr Plastikflasche",
    "Kunststuff",
    "PP-Becher",
    "Aluminiun",
    "Kunststofflasche",
    "01PET",
    " 01 PET",
    "Vakuumpack",
    "Kunsstoffschale und Folie",
    "FSC-C022873",
    "HD-PE",
    "Kuntstoff",
    "Kunststoffschale in Kunststofftüte",
    "Kunststoff-Dose",
    "Kunststoff Einwegpfandflasche",
    "FSC C014047",
    "Vakuum",
    "Wiederverschließbarer Beutel",
    "Druckbehälter",
    "Zippertüte",
    "eingeschweißt in Plastik",
    "Pappkarton und Alutüte",
    "Blockbodenbeutel mit Fenster und Clip",
    "07 PA-PE",
    "70 FE",
    "07 OPP/PE",
    "Plister",
    "SB Plastik 07",
    "Kunststoffpackung",
    "82 C/ALU",
    "06 ES",
    "04-PELD",
    " Plastique",
    "VerpackV-5",
    "5-pp",
    "Sprühflasche",
    "Kunststoff Flasche",
    "04 C/PAP",
    "Plastiktüten",
    "C/PP",
    " 07",
    "50 PP",
    " Tüten",
    "Karton + Plastik",
    " Plastiktüte",
    "PAP-PE",
    "Umkarton Plastikbeutel",
    "Kubststoff",
    "Kunstsoff",
    " 1",
    "R-PET",
    "Kunstoff Tube",
    "rund Kunststoff",
    "Einweg Pfanddose",
    "BOTTLE",
    "plastickflasche",
    "eingeschweißt in Kunststoff",
    "500g-Becher",
    " Plastic",
    "FSC Mix C122029",
    "plastica",
    "Scheiben Pro Packung 13 Scheiben Gouda Käse in Wiederverschließbarer Verpackung",
    " FSC Mix",
    "tiefgefroren",
    "04-C/PAP",
    "beschichtete Kunststofftüte",
    "KunststoffEimer",
    "Dose plastik",
    "Beute",
    "wiederverschließbare Tüte",
    "Folien-Tüte",
    "Karton Folie",
    "Folie Kunststoff",
    "OPP/PE Beutel",
    "Weicher Kunststoff",
    "Blister",
    " Formschale",
    "Low-Density Polyethylen",
    "PET-Pfandflasche",
    "Einweg-Pfandflasche",
    "Plastikflasch",
    "81 RC",
    "Pakcung",
    "innen 2 Pakete in Folie",
    "Aluminiumtube",
    "Papier Aluminiumfolie",
    "Plastikpackung",
    "abgepackt",
    "Pkadtik",
    "Plastikrolle",
    "06PS",
    "kuststoff",
    "Kunsstoff",
    "FSC-C014047",
    " plastic",
    "Pp",
    "Joghurt-Becher",
    "Vakuumbeutel",
    "Becher plastik",
    "04 PE",
    "Papier-Kunststoffsack",
    "Plastickflasche",
    "FSC C020428",
    "Kunststoff Schale",
    "Plastikbecher mit Papierbanderole",
    " Doppelkammerbeutel",
    "pet bottle",
    "Kunststoffkarton",
    "Plastic pouch",
    "Mix Karton FSC C014047",
    " paperboard",
    "Papierschale",
    "4 LDPE",
    "PE-HD",
    "bouteille plastique et son bouchon - opercule métal à recycler",
    "PPS",
    "Papier plastique",
    " 1 sachet en plastique",
    "PEHD",
    "Bechern",
    " PP",
    "Weichpackung",
    "05-PP.",
    "Papier Plastik Herz",
    "Metallfolie bedruckt",
    "Kunbststofffolie",
    " 05PP",
    "Plastikschachtel",
    "C/LDPE 90",
    "LDPE",
    "pe",
    "7-PET",
    "bottiglia",
    "en:Plastic bag",
    "tins",
    "carta",
    "MIX Packaging",
    "FSC MIX Packaging",
    "Cartonnette",
    "Emballage carton",
    "Boite en carton",
    "90 C/PET",
    " 06 PS",
    "fr:Plastic film",
    " Folie Faden",
    "Envase de Plástico",
    "90-C/PP",
    "Plastikbeutel (nicht wiederverschließbar)",
    "plastig",
    "Kunststoffspender",
    "beschichtete Kunststofffolie",
    "sachet plastique",
    "Schaumstoff",
    "fr:Kunststoff",
    "fr:Film",
    "Plastikeimer",
    "Bote de plástico",
    "C/CAP",
    "Einwegrecyclingflasche",
    "plastig bächer"
]
}
